Enter problem type, solution type, max cost and max # of solutions: Enter puzzle problem: 
Answers are: 
Answer 0 with cost 8
    Do Commutation to get 3.0 a * 4.0 a * + 6.0 a * 1.0 + - 
    Do Distribution to get 3.0 4.0 + a * 6.0 a * 1.0 + - 
    Do Constant Folding to get 7.0 a * 6.0 a * 1.0 + - 
    Do Left Association to get 7.0 a * 6.0 a * - 1.0 - 
    Do Distribution to get 7.0 6.0 - a * 1.0 - 
    Do Constant Folding to get 1.0 a * 1.0 - 
    Do Commutation to get a 1.0 * 1.0 - 
    Do Reduction to get a = 1.0
Final state:
a = 1.0

Answer 1 with cost 9
    Do Commutation to get 3.0 a * 4.0 a * + 6.0 a * 1.0 + - 
    Do Distribution to get 3.0 4.0 + a * 6.0 a * 1.0 + - 
    Do Constant Folding to get 7.0 a * 6.0 a * 1.0 + - 
    Do Left Association to get 7.0 a * 6.0 a * - 1.0 - 
    Do Distribution to get 7.0 6.0 - a * 1.0 - 
    Do Constant Folding to get 1.0 a * 1.0 - 
    Do Commutation to get a 1.0 * 1.0 - 
    Do Constant Folding to get a 1.0 * -1.0 + 
    Do Reduction to get a = 1.0
Final state:
a = 1.0

